…
Lets start with a 30 day lookup on Microsoft.

``` r
stockResults1<-stockAggregateLookup(symbolName="MSFT",lookupDateFrom=Sys.Date()-31,lookupDateTo=Sys.Date()-1,multiplier = 1,timespan="day",printSummary=FALSE,returnResultsList=TRUE)
```

Here is a printout of some of the values returned from the lookup, as
well as the readable date field called ‘tDate’.

``` r
as_tibble(stockResults1)
```

    ## # A tibble: 21 × 11
    ##           v    vw     o     c     h     l             t      n tDate               Symbol Name                               
    ##       <dbl> <dbl> <dbl> <dbl> <dbl> <dbl>         <dbl>  <int> <dttm>              <chr>  <chr>                              
    ##  1 29043904  258.  258.  260.  261.  254. 1653364800000 357104 2022-05-23 23:00:00 MSFT   Microsoft Corporation - Common Sto…
    ##  2 28547947  261.  258.  263.  265.  257. 1653451200000 340324 2022-05-24 23:00:00 MSFT   Microsoft Corporation - Common Sto…
    ##  3 25002105  265.  262.  266.  267.  261. 1653537600000 297969 2022-05-25 23:00:00 MSFT   Microsoft Corporation - Common Sto…
    ##  4 26910824  272.  268.  273.  273.  268. 1653624000000 307860 2022-05-26 23:00:00 MSFT   Microsoft Corporation - Common Sto…
    ##  5 37827695  272.  273.  272.  275.  269. 1653969600000 363100 2022-05-30 23:00:00 MSFT   Microsoft Corporation - Common Sto…
    ##  6 25285874  273.  275.  272.  278.  270. 1654056000000 321548 2022-05-31 23:00:00 MSFT   Microsoft Corporation - Common Sto…
    ##  7 44008205  269.  264.  275.  275.  262. 1654142400000 532530 2022-06-01 23:00:00 MSFT   Microsoft Corporation - Common Sto…
    ##  8 28058958  270.  270.  270.  273.  268. 1654228800000 303810 2022-06-02 23:00:00 MSFT   Microsoft Corporation - Common Sto…
    ##  9 22397042  270.  272.  269.  274.  267. 1654488000000 260013 2022-06-05 23:00:00 MSFT   Microsoft Corporation - Common Sto…
    ## 10 22860677  271.  267.  272.  273.  266. 1654574400000 247047 2022-06-06 23:00:00 MSFT   Microsoft Corporation - Common Sto…
    ## # … with 11 more rows
…
