…
    ## [1] "Running stockAggregateLookup function"
    ## [1] "Running isValidSymbol function"
    ## [1] "Running isValidDate function"
    ## [1] "Running isValidDate function"
    ## [1] "Running isValidTimespan function"

Here is a printout of some of the values returned from the lookup, as
well as the readable date field called ‘tDate’.

``` r
as_tibble(stockResults1)
```

    ## # A tibble: 22 × 11
    ##           v    vw     o     c     h     l           t      n tDate              
    ##       <dbl> <dbl> <dbl> <dbl> <dbl> <dbl>       <dbl>  <int> <dttm>             
    ##  1 31355985  256.  263   254.  264.  253.     1.65e12 414290 2022-05-17 23:00:00
    ##  2 32692286  254.  254.  253.  258.  252.     1.65e12 408722 2022-05-18 23:00:00
    ##  3 39164899  252.  257.  253.  259.  246.     1.65e12 518558 2022-05-19 23:00:00
    ##  4 33175379  259.  255.  261.  262.  253.     1.65e12 386147 2022-05-22 23:00:00
    ##  5 29043904  258.  258.  260.  261.  254.     1.65e12 357104 2022-05-23 23:00:00
    ##  6 28547947  261.  258.  263.  265.  257.     1.65e12 340324 2022-05-24 23:00:00
    ##  7 25002105  265.  262.  266.  267.  261.     1.65e12 297969 2022-05-25 23:00:00
    ##  8 26910824  272.  268.  273.  273.  268.     1.65e12 307860 2022-05-26 23:00:00
    ##  9 37827695  272.  273.  272.  275.  269.     1.65e12 363100 2022-05-30 23:00:00
    ## 10 25285874  273.  275.  272.  278.  270.     1.65e12 321548 2022-05-31 23:00:00
    ## # … with 12 more rows, and 2 more variables: Symbol <chr>, Name <chr>
…
